30/07/2019 3:41 pm
Sports Tracker
Latitude;Longitude;Elevation;Timestamp
60.174256666666665;25.060095;27.0;2019-07-30T12:41:31Z
60.174295;25.060038333333335;25.0;2019-07-30T12:41:31Z
60.174355;25.05986;26.0;2019-07-30T12:41:33Z
60.174415;25.059671666666667;25.0;2019-07-30T12:41:35Z
60.17449;25.059545;25.0;2019-07-30T12:41:37Z
60.174551666666666;25.059415;26.0;2019-07-30T12:41:39Z
60.174625;25.05936;25.0;2019-07-30T12:41:41Z
60.174715;25.05925;26.0;2019-07-30T12:41:43Z
60.174771666666665;25.059165;26.0;2019-07-30T12:41:45Z
60.17485666666666;25.059046666666667;25.0;2019-07-30T12:41:47Z
60.17496;25.05899;25.0;2019-07-30T12:41:49Z
60.175115;25.058915;23.0;2019-07-30T12:41:51Z
60.175205;25.058911666666667;21.0;2019-07-30T12:41:52Z
60.175515;25.058795;20.0;2019-07-30T12:41:54Z
60.17564;25.05883;20.0;2019-07-30T12:41:56Z
60.17573;25.058805;20.0;2019-07-30T12:41:57Z
60.17581166666667;25.058796666666666;20.0;2019-07-30T12:41:58Z
60.175895;25.058785;20.0;2019-07-30T12:41:59Z
60.17598;25.05874;19.0;2019-07-30T12:42:00Z
60.17606;25.058685;18.0;2019-07-30T12:42:01Z
60.176141666666666;25.05863;19.0;2019-07-30T12:42:02Z
60.17624166666667;25.05856;19.0;2019-07-30T12:42:03Z
60.176305;25.05844;18.0;2019-07-30T12:42:04Z
60.176445;25.05831;19.0;2019-07-30T12:42:06Z
60.176515;25.05823;18.0;2019-07-30T12:42:07Z
60.17659;25.05818;18.0;2019-07-30T12:42:08Z
60.17666;25.058101666666666;19.0;2019-07-30T12:42:09Z
60.17673;25.058055;20.0;2019-07-30T12:42:10Z
60.17686;25.05791;19.0;2019-07-30T12:42:12Z
60.17697;25.057745;17.0;2019-07-30T12:42:14Z
60.177105;25.057595;18.0;2019-07-30T12:42:16Z
60.17719666666667;25.05735;19.0;2019-07-30T12:42:18Z
60.177255;25.057241666666666;20.0;2019-07-30T12:42:19Z
60.17729666666666;25.057105;19.0;2019-07-30T12:42:20Z
60.17732;25.056965;17.0;2019-07-30T12:42:21Z
60.17737666666667;25.056816666666666;18.0;2019-07-30T12:42:22Z
60.17742166666667;25.05669;18.0;2019-07-30T12:42:23Z
60.177475;25.05656;19.0;2019-07-30T12:42:24Z
60.17751833333333;25.056435;20.0;2019-07-30T12:42:25Z
60.17754;25.056271666666667;19.0;2019-07-30T12:42:26Z
60.17757;25.056135;19.0;2019-07-30T12:42:27Z
60.177611666666664;25.05589;18.0;2019-07-30T12:42:29Z
60.17766666666667;25.055676666666667;17.0;2019-07-30T12:42:31Z
60.177706666666666;25.055461666666666;19.0;2019-07-30T12:42:33Z
60.17776666666666;25.055235;21.0;2019-07-30T12:42:35Z
60.1778;25.05503;21.0;2019-07-30T12:42:37Z
60.17783333333333;25.054796666666668;23.0;2019-07-30T12:42:39Z
60.17785;25.054561666666668;23.0;2019-07-30T12:42:41Z
60.17787;25.05431;23.0;2019-07-30T12:42:43Z
60.177875;25.054085;23.0;2019-07-30T12:42:45Z
60.17792;25.05389;23.0;2019-07-30T12:42:47Z
60.17795666666667;25.05367;25.0;2019-07-30T12:42:49Z
60.177996666666665;25.053491666666666;25.0;2019-07-30T12:42:51Z
60.178041666666665;25.053305;25.0;2019-07-30T12:42:53Z
60.17807;25.053143333333335;23.0;2019-07-30T12:42:55Z
60.1781;25.052986666666666;23.0;2019-07-30T12:42:57Z
60.17812166666667;25.052826666666668;24.0;2019-07-30T12:42:59Z
60.17818666666667;25.052721666666667;25.0;2019-07-30T12:43:01Z
60.178266666666666;25.052645;25.0;2019-07-30T12:43:03Z
60.1783;25.052451666666666;25.0;2019-07-30T12:43:06Z
60.178305;25.052285;24.0;2019-07-30T12:43:08Z
60.17832;25.05209;23.0;2019-07-30T12:43:10Z
60.178351666666664;25.05186;23.0;2019-07-30T12:43:12Z
60.17833;25.051675;24.0;2019-07-30T12:43:14Z
60.178306666666664;25.05147;24.0;2019-07-30T12:43:16Z
60.17836;25.051295;24.0;2019-07-30T12:43:18Z
60.178435;25.051195;24.0;2019-07-30T12:43:20Z
60.178545;25.05112;24.0;2019-07-30T12:43:22Z
60.17866166666666;25.051061666666666;25.0;2019-07-30T12:43:24Z
60.17878;25.051025;25.0;2019-07-30T12:43:26Z
60.1789;25.051005;25.0;2019-07-30T12:43:28Z
60.179026666666665;25.05099;25.0;2019-07-30T12:43:30Z
60.179155;25.050955;24.0;2019-07-30T12:43:32Z
60.179285;25.05094;24.0;2019-07-30T12:43:34Z
60.17939666666667;25.050835;23.0;2019-07-30T12:43:36Z
60.179515;25.050751666666667;24.0;2019-07-30T12:43:38Z
60.179631666666666;25.050745;23.0;2019-07-30T12:43:40Z
60.17975;25.050683333333332;25.0;2019-07-30T12:43:42Z
60.179865;25.050595;26.0;2019-07-30T12:43:44Z
60.179966666666665;25.050525;25.0;2019-07-30T12:43:46Z
60.18008;25.050446666666666;24.0;2019-07-30T12:43:48Z
60.18018166666667;25.050413333333335;24.0;2019-07-30T12:43:50Z
60.18031;25.05035;24.0;2019-07-30T12:43:52Z
60.18043;25.050315;25.0;2019-07-30T12:43:54Z
60.18054;25.05031;25.0;2019-07-30T12:43:56Z
60.18063166666666;25.0504;24.0;2019-07-30T12:43:58Z
60.18068;25.05056;23.0;2019-07-30T12:44:00Z
60.180715;25.050716666666666;23.0;2019-07-30T12:44:02Z
60.180795;25.050835;22.0;2019-07-30T12:44:04Z
60.180931666666666;25.05092;21.0;2019-07-30T12:44:06Z
60.18104;25.050935;23.0;2019-07-30T12:44:08Z
60.18114;25.050926666666665;23.0;2019-07-30T12:44:10Z
60.18126;25.05096;22.0;2019-07-30T12:44:12Z
60.181335;25.050976666666667;21.0;2019-07-30T12:44:13Z
60.181475;25.050975;24.0;2019-07-30T12:44:15Z
60.181585;25.050995;25.0;2019-07-30T12:44:17Z
60.181715;25.051026666666665;24.0;2019-07-30T12:44:19Z
60.1818;25.051;23.0;2019-07-30T12:44:21Z
60.181905;25.050976666666667;25.0;2019-07-30T12:44:23Z
60.181981666666665;25.050975;26.0;2019-07-30T12:44:25Z
60.18207;25.05095;26.0;2019-07-30T12:44:27Z
60.182165;25.05094;28.0;2019-07-30T12:44:29Z
60.18226;25.050935;30.0;2019-07-30T12:44:32Z
60.182335;25.050886666666667;30.0;2019-07-30T12:44:34Z
60.18243;25.050845;30.0;2019-07-30T12:44:36Z
60.182518333333334;25.050815;31.0;2019-07-30T12:44:38Z
60.18262;25.050796666666667;33.0;2019-07-30T12:44:40Z
60.182695;25.05078;30.0;2019-07-30T12:44:42Z
60.18277666666667;25.050725;30.0;2019-07-30T12:44:44Z
60.182875;25.05067;30.0;2019-07-30T12:44:46Z
60.18296333333333;25.050683333333332;30.0;2019-07-30T12:44:48Z
60.18306;25.050621666666668;29.0;2019-07-30T12:44:50Z
60.18317;25.05057;29.0;2019-07-30T12:44:52Z
60.183276666666664;25.050475;30.0;2019-07-30T12:44:54Z
60.183385;25.05041;29.0;2019-07-30T12:44:56Z
60.18349833333333;25.05038;29.0;2019-07-30T12:44:58Z
60.18363;25.050325;30.0;2019-07-30T12:45:00Z
60.183715;25.050165;29.0;2019-07-30T12:45:02Z
60.18376;25.049895;28.0;2019-07-30T12:45:04Z
60.183796666666666;25.049755;27.0;2019-07-30T12:45:05Z
60.18385;25.049616666666665;26.0;2019-07-30T12:45:06Z
60.18389;25.049485;25.0;2019-07-30T12:45:07Z
60.18393;25.049356666666668;25.0;2019-07-30T12:45:08Z
60.183965;25.049235;25.0;2019-07-30T12:45:09Z
60.184005;25.049105;25.0;2019-07-30T12:45:10Z
60.18404666666667;25.048981666666666;24.0;2019-07-30T12:45:11Z
60.184126666666664;25.048748333333332;24.0;2019-07-30T12:45:13Z
60.18417;25.048635;23.0;2019-07-30T12:45:14Z
60.184261666666664;25.048445;22.0;2019-07-30T12:45:16Z
60.184365;25.04829;23.0;2019-07-30T12:45:18Z
60.18446;25.048095;22.0;2019-07-30T12:45:20Z
60.184565;25.04789;21.0;2019-07-30T12:45:22Z
60.184628333333336;25.04781;21.0;2019-07-30T12:45:23Z
60.18468166666667;25.04769;21.0;2019-07-30T12:45:24Z
60.18476;25.047595;20.0;2019-07-30T12:45:25Z
60.184825;25.047491666666666;20.0;2019-07-30T12:45:26Z
60.1849;25.04744;21.0;2019-07-30T12:45:27Z
60.184945;25.047325;21.0;2019-07-30T12:45:28Z
60.185005;25.047225;19.0;2019-07-30T12:45:29Z
60.1851;25.047015;18.0;2019-07-30T12:45:31Z
60.18516;25.046915;19.0;2019-07-30T12:45:32Z
60.18525;25.046741666666666;18.0;2019-07-30T12:45:34Z
60.18534;25.0466;16.0;2019-07-30T12:45:36Z
60.18542;25.046396666666666;16.0;2019-07-30T12:45:38Z
60.1855;25.046186666666667;17.0;2019-07-30T12:45:40Z
60.185565;25.04599;18.0;2019-07-30T12:45:42Z
60.18564;25.0458;16.0;2019-07-30T12:45:44Z
60.18572;25.0456;20.0;2019-07-30T12:45:46Z
60.185775;25.045385;21.0;2019-07-30T12:45:48Z
60.18584;25.0452;22.0;2019-07-30T12:45:50Z
60.185901666666666;25.044995;22.0;2019-07-30T12:45:52Z
60.185955;25.04489;23.0;2019-07-30T12:45:53Z
60.186025;25.044688333333333;24.0;2019-07-30T12:45:55Z
60.1861;25.04457;24.0;2019-07-30T12:45:57Z
60.186175;25.044365;24.0;2019-07-30T12:45:59Z
60.186251666666664;25.04418;24.0;2019-07-30T12:46:01Z
60.18635;25.043975;25.0;2019-07-30T12:46:03Z
60.18644166666667;25.04378;25.0;2019-07-30T12:46:05Z
60.186525;25.043598333333332;24.0;2019-07-30T12:46:07Z
60.186605;25.04338;24.0;2019-07-30T12:46:09Z
60.186715;25.043218333333332;23.0;2019-07-30T12:46:11Z
60.1868;25.04303;22.0;2019-07-30T12:46:13Z
60.18688;25.042865;22.0;2019-07-30T12:46:15Z
60.186985;25.04271;21.0;2019-07-30T12:46:17Z
60.187045;25.04262;22.0;2019-07-30T12:46:18Z
60.187151666666665;25.042461666666668;22.0;2019-07-30T12:46:20Z
60.18727166666667;25.042265;22.0;2019-07-30T12:46:22Z
60.187375;25.042111666666667;20.0;2019-07-30T12:46:24Z
60.187485;25.04196;22.0;2019-07-30T12:46:26Z
60.18760666666667;25.041825;22.0;2019-07-30T12:46:28Z
60.18768166666667;25.04177333333333;23.0;2019-07-30T12:46:29Z
60.187805;25.041695;21.0;2019-07-30T12:46:31Z
60.18787666666667;25.04165;21.0;2019-07-30T12:46:32Z
60.18799;25.04156;20.0;2019-07-30T12:46:34Z
60.18806166666667;25.041506666666667;21.0;2019-07-30T12:46:35Z
60.188195;25.041416666666667;22.0;2019-07-30T12:46:37Z
60.188315;25.041435;18.0;2019-07-30T12:46:39Z
60.188385;25.041405;18.0;2019-07-30T12:46:40Z
60.188475;25.04137;21.0;2019-07-30T12:46:41Z
60.188605;25.041315;20.0;2019-07-30T12:46:43Z
60.18872666666667;25.041235;27.0;2019-07-30T12:46:45Z
60.18886166666667;25.04115;25.0;2019-07-30T12:46:47Z
60.18898;25.041035;26.0;2019-07-30T12:46:49Z
60.189101666666666;25.04095;27.0;2019-07-30T12:46:51Z
60.189235;25.04088;26.0;2019-07-30T12:46:53Z
60.189365;25.04079;26.0;2019-07-30T12:46:55Z
60.189481666666666;25.040695;26.0;2019-07-30T12:46:57Z
60.1896;25.04063;20.0;2019-07-30T12:46:59Z
60.189706666666666;25.04058;21.0;2019-07-30T12:47:01Z
60.18980166666667;25.040505;22.0;2019-07-30T12:47:03Z
60.189905;25.04043666666667;23.0;2019-07-30T12:47:05Z
60.190016666666665;25.04038;24.0;2019-07-30T12:47:07Z
60.190125;25.040295;24.0;2019-07-30T12:47:09Z
60.190225;25.040225;20.0;2019-07-30T12:47:11Z
60.19034;25.04016;21.0;2019-07-30T12:47:13Z
60.190446666666666;25.040115;23.0;2019-07-30T12:47:15Z
60.190565;25.04005;23.0;2019-07-30T12:47:17Z
60.190691666666666;25.040055;22.0;2019-07-30T12:47:19Z
60.19081;25.04005;23.0;2019-07-30T12:47:21Z
60.190915;25.040041666666667;22.0;2019-07-30T12:47:23Z
60.19104;25.04005;21.0;2019-07-30T12:47:25Z
60.191175;25.040055;20.0;2019-07-30T12:47:27Z
60.191316666666665;25.040071666666666;19.0;2019-07-30T12:47:29Z
60.19146166666667;25.040091666666665;19.0;2019-07-30T12:47:31Z
60.19153166666667;25.040135;19.0;2019-07-30T12:47:32Z
60.191685;25.040155;17.0;2019-07-30T12:47:34Z
60.191805;25.04016;19.0;2019-07-30T12:47:36Z
60.19192;25.040106666666667;18.0;2019-07-30T12:47:38Z
60.19200166666667;25.04003;15.0;2019-07-30T12:47:40Z
60.192125;25.03993;17.0;2019-07-30T12:47:42Z
60.192191666666666;25.039871666666667;18.0;2019-07-30T12:47:43Z
60.19229166666667;25.039741666666668;17.0;2019-07-30T12:47:45Z
60.192368333333334;25.039576666666665;17.0;2019-07-30T12:47:47Z
60.192415;25.03946;19.0;2019-07-30T12:47:48Z
60.19243;25.039215;19.0;2019-07-30T12:47:50Z
60.19247166666667;25.039;19.0;2019-07-30T12:47:52Z
60.19251833333333;25.038781666666665;19.0;2019-07-30T12:47:54Z
60.19257;25.03857;20.0;2019-07-30T12:47:56Z
60.19263;25.03835;20.0;2019-07-30T12:47:58Z
60.192685;25.03816;22.0;2019-07-30T12:48:00Z
60.19274;25.037971666666667;22.0;2019-07-30T12:48:02Z
60.19276;25.037781666666667;23.0;2019-07-30T12:48:04Z
60.192818333333335;25.037565;24.0;2019-07-30T12:48:06Z
60.19288;25.037421666666667;24.0;2019-07-30T12:48:08Z
60.19293166666667;25.037245;22.0;2019-07-30T12:48:10Z
60.192971666666665;25.03704;21.0;2019-07-30T12:48:12Z
60.193015;25.036835;20.0;2019-07-30T12:48:14Z
60.19305833333333;25.036655;20.0;2019-07-30T12:48:16Z
60.19309166666667;25.036455;21.0;2019-07-30T12:48:18Z
60.193105;25.0363;20.0;2019-07-30T12:48:21Z
60.193145;25.03621;18.0;2019-07-30T12:48:28Z
60.193205;25.03609;17.0;2019-07-30T12:48:41Z
60.19326;25.03592;15.0;2019-07-30T12:48:52Z
60.193281666666664;25.03572;16.0;2019-07-30T12:48:54Z
60.19333;25.035505;19.0;2019-07-30T12:48:56Z
60.193375;25.03532;19.0;2019-07-30T12:48:58Z
60.193415;25.035125;17.0;2019-07-30T12:49:00Z
60.19349;25.034916666666668;22.0;2019-07-30T12:49:02Z
60.193545;25.03472;21.0;2019-07-30T12:49:04Z
60.1936;25.034506666666665;21.0;2019-07-30T12:49:06Z
60.19365166666667;25.034286666666667;20.0;2019-07-30T12:49:08Z
60.19372;25.034081666666665;21.0;2019-07-30T12:49:10Z
60.19374;25.033886666666668;19.0;2019-07-30T12:49:12Z
60.193795;25.03371;19.0;2019-07-30T12:49:14Z
60.19385;25.03349;18.0;2019-07-30T12:49:16Z
60.193886666666664;25.033275;20.0;2019-07-30T12:49:18Z
60.19392;25.033045;21.0;2019-07-30T12:49:20Z
60.193945;25.03282;22.0;2019-07-30T12:49:22Z
60.19395;25.032605;24.0;2019-07-30T12:49:24Z
60.193955;25.032431666666668;24.0;2019-07-30T12:49:26Z
60.193985;25.032251666666667;24.0;2019-07-30T12:49:28Z
60.19402;25.0321;25.0;2019-07-30T12:49:30Z
60.194075;25.031945;26.0;2019-07-30T12:49:32Z
60.19411;25.03175;27.0;2019-07-30T12:49:34Z
60.194165;25.0316;28.0;2019-07-30T12:49:36Z
60.19421;25.03144;28.0;2019-07-30T12:49:38Z
60.19426;25.031276666666667;29.0;2019-07-30T12:49:40Z
60.194305;25.031115;29.0;2019-07-30T12:49:42Z
60.194375;25.030976666666668;29.0;2019-07-30T12:49:44Z
60.19444;25.03086;30.0;2019-07-30T12:49:46Z
60.194545;25.030835;30.0;2019-07-30T12:49:49Z
60.194625;25.03088;30.0;2019-07-30T12:49:51Z
60.1947;25.030825;30.0;2019-07-30T12:49:53Z
60.194765;25.030925;30.0;2019-07-30T12:49:56Z
60.1948;25.03106;31.0;2019-07-30T12:50:02Z
60.19478;25.031025;31.0;2019-07-30T12:50:15Z
60.19476;25.030706666666667;29.0;2019-07-30T12:50:55Z
