﻿Longitude;Latitude;FID;name;total_slot;operative;id
NoData;60.180027000145969;256;Betonimies;16;Yes;532
24.824746999974138;60.180806000096879;257;Tekniikantie;18;Yes;533
24.814220000152943;60.185096000080421;258;Innopoli;20;Yes;537
24.817403000348236;60.183629999924619;259;Hagalundinpuisto;1;Yes;538
24.820098999669142;Nodata;260;Aalto-yliopisto (M), Tietotie;20;Yes;539
?;60.18431199989891;261;Aalto-yliopisto (M), Korkeakouluaukio;40;Yes;541
24.837133000087931;60.184830000404247;262;Otaranta;20;Yes;543
24.829984999608087;60.188498999629189;263;Sahkomies;12;Yes;545
24.835033000372732;60.188118000045733;264;Jamerantaival;30;Yes;547
NoData;NoData;265;Maarinranta;12;Yes;549