﻿Longitude;Latitude;FID;name;total_slot;operative;id
24.950292890004903;60.155444793742276;1;Kaivopuisto;30;Yes;001
24.956347471358754;60.160959093887129;2;Laivasillankatu;12;Yes;002
24.944927399779715;60.158189199971673;3;Kapteeninpuistikko;16;Yes;003
24.941775800312996;60.16098589997938;4;Viiskulma;14;Yes;004
24.93628529982675;60.157948300373846;5;Sepankatu;32;Yes;005
24.929709900391629;60.162225100108344;6;Hietalahdentori;24;Yes;006
24.945959999554361;60.163103199952786;7;Designmuseo;14;Yes;007
24.939149900447603;60.165288299815245;8;Vanha kirkkopuisto;24;Yes;008
24.944134928883898;60.166911666939939;9;Erottajan aukio;1;Yes;009
24.949472879170116;60.165017180298662;10;Kasarmitori;28;Yes;010
24.951022699737848;60.167457300014462;11;Unioninkatu;22;Yes;011
24.958381399681912;60.168384000121591;12;Kanavaranta;26;Yes;012
24.975534099818901;60.167870300174286;13;Merisotilaantori;12;Yes;013
24.95264140028047;60.169127799708235;14;Senaatintori;22;Yes;014
24.95555819305622;60.171106645455382;15;Ritarikatu;12;Yes;015
24.961374699582791;60.174182200048563;16;Liisanpuistikko;16;Yes;016
24.94947909978066;60.173102900278707;17;Varsapuistikko;28;Yes;017
24.94814639983656;60.169862228359193;18;Porthania;21;Yes;018
24.942526799871985;60.170823600029166;19;Rautatientori / ita;20;Yes;019
24.943301001040425;60.173198941577937;20;Kaisaniemenpuisto;22;Yes;020
24.939284000156533;60.172943499942619;21;Toolonlahdenkatu;48;Yes;021
24.939760100348394;60.170606099891643;22;Rautatientori / lansi;16;Yes;022
24.937427900177511;60.171257899732325;23;Kiasma;30;Yes;023
24.939419500109921;60.169072399671563;24;Mannerheimintie;20;Yes;024
24.93512120028322;60.170084399575444;25;Narinkka;40;Yes;025
24.930537300056415;60.168609499728689;26;Kampin metroasema;32;Yes;026
24.935785099602697;60.167333199867358;27;Eerikinkatu;14;Yes;027
24.927021000318973;60.165812100048413;28;Lastenlehto;16;Yes;028
24.922565800271514;60.164087999861351;29;Baana;16;Yes;029
24.914516500136415;60.163530900430771;30;Itamerentori;40;Yes;030
24.922076300181175;60.16809979996583;31;Marian Sairaala;16;Yes;031
24.931223405435844;60.171870055658587;32;Elainmuseo;20;No;032
24.924960999750397;60.171159100212378;33;Kauppakorkeakoulu;16;Yes;033
24.932987500272986;60.173964100063245;34;Kansallismuseo;16;Yes;034
24.928227580238683;60.174063715268289;35;Cygnauksenkatu;16;Yes;035
24.922394199732594;60.176079800142702;36;Apollonkatu;12;Yes;036
24.928327199940384;60.177559800044776;37;Toolonkatu;18;Yes;037
24.924911400340932;60.179123099651406;38;Toolontori;16;Yes;038
24.926687000204936;60.18255289989645;39;Ooppera;24;Yes;039
24.952181248665738;60.178106316253547;40;Hakaniemen metroasema;28;Yes;040
24.949399999910099;60.1808630000275;41;Ympyratalo;28;Yes;041
24.955180821337876;60.183106582802623;42;Haapaniemenkatu;18;Yes;042
24.952676300271094;60.184283299834476;43;Karhupuisto;20;Yes;043
24.960892106285712;60.18803805391309;44;Sornaisten metroasema;20;Yes;044
24.950916800070331;60.186861800032091;45;Brahen kentta;20;Yes;045
24.941857599948321;60.186287699817569;46;Diakoniapuisto;10;Yes;046
24.953504666707033;60.166730718847646;47;Vanha Kauppahalli;23;Yes;047
24.967486100103486;60.164754500020194;48;Mastokatu;16;Yes;048
24.941770842350536;60.163458942975865;49;Annankatu;16;Yes;049
24.886109399729037;60.149812700395842;50;Melkonkuja;12;Yes;050
24.881250199936801;60.150660000258881;51;Italahdenkatu;12;Yes;051
24.879315900308598;60.15407629988141;52;Heikkilanaukio;20;Yes;052
24.88506530032339;60.156817000004594;53;Heikkilantie;12;Yes;053
24.876665799686975;60.158384199970897;54;Gyldenintie;36;Yes;054
24.859866268713404;60.161695961499504;55;Puistokaari;16;Yes;055
24.860199200432817;60.165448499648619;56;Luoteisvayla;12;Yes;056
24.881544100180122;60.160330599977272;57;Lauttasaaren ostoskeskus;26;Yes;057
24.892638600091345;60.161551200327665;58;Lauttasaarensilta;20;Yes;058
24.900960803098656;60.164781380756153;59;Salmisaarenranta;20;Yes;059
24.905336000356158;60.163249300215114;60;Porkkalankatu;40;Yes;060
24.909691999785991;60.15892760002879;61;Lansisatamankatu;16;Yes;061
24.915873399937482;60.161090099928231;62;Messitytonkatu;18;Yes;062
24.921489599565405;60.161931100040306;63;Jatkasaarenlaituri;24;Yes;063
24.921746400076358;60.156525500051828;64;Tyynenmerenkatu;29;Yes;064
24.931254066921724;60.153529682049225;65;Hylkeenpyytajankatu;30;Yes;065
24.95912710043541;60.155308999710599;66;Ehrenstromintie;20;Yes;066
24.933834286623096;60.159977250949453;67;Peramiehenkatu;16;Yes;067
24.936817899926211;60.161835899607127;68;Albertinkatu;20;Yes;068
24.931432299960704;60.165696199919751;69;Kalevankatu;16;Yes;069
24.922411199617216;60.173147299808079;70;Sammonpuistikko;14;Yes;070
24.911279648537004;60.172611545786253;71;Hietaniemenkatu;24;Yes;071
24.915662751734658;60.175587873681479;72;Etelainen Hesperiankatu;1;No;072
24.913250400385721;60.179296700282521;73;Kesakatu;14;Yes;073
24.911127000310842;60.183136999672854;74;Rajasaarentie;16;Yes;074
24.919837099802351;60.183867699734606;75;Korjaamo;25;Yes;075
24.924974100174609;60.184505499829015;76;Olympiastadion;20;Yes;076
24.917249841107321;60.185236329393149;77;Nordenskioldinaukio;16;Yes;077
24.918010199910839;60.18783520013443;78;Messeniuksenkatu;24;Yes;078
24.929228600319675;60.189217200013843;79;Uimastadion;18;Yes;079
24.920597800348276;60.189402499925507;80;Jaahalli;22;No;080
24.912371699794164;60.188309099685284;81;Stenbackinkatu;18;Yes;081
24.912827135364068;60.190956932216693;82;Toolontulli;16;Yes;082
24.908335099984924;60.190219499830107;83;Meilahden sairaala;28;Yes;083
24.899910050508481;60.191202155754922;84;Paciuksenkatu;14;Yes;084
24.905888999777574;60.19346960024194;85;Jalavatie;16;Yes;085
24.901899699811338;60.195245200105944;86;Kuusitie;24;Yes;086
24.955975931743922;60.188275217727153;87;Kustaankatu;20;Yes;087
24.901299700021184;60.198940199630556;88;Kiskontie;20;Yes;088
24.899260999895262;60.197532900023361;89;Tilkanvierto;16;Yes;089
24.891117899571441;60.194447499652426;90;Paciuksenkaari;20;Yes;090
24.884736199715917;60.188399000413597;91;Seurasaari;22;Yes;091
24.879221442715448;60.192630583134985;92;Saunalahdentie;8;Yes;092
24.871396300398999;60.194835799932264;93;Torpanranta;16;Yes;093
24.876221716259238;60.197930907585373;94;Laajalahden aukio;16;Yes;094
24.88409169967224;60.196719599929622;95;Munkkiniemen aukio;18;Yes;095
24.883620900084509;60.199665299613969;96;Huopalahdentie;14;Yes;096
24.870883300124262;60.203880299736113;97;Ulvilantie;12;Yes;098
24.85595440037531;60.207119299815872;98;Muusantori;12;Yes;099
24.868739477345059;60.20969562545281;99;Teljantie;12;Yes;100
24.879829100232826;60.20599459957117;100;Munkkivuoren ostoskeskus;1;Yes;101
24.889520899669833;60.208924999988824;101;Vihdintie;16;Yes;103
24.891681699850608;60.205678499563135;102;Kriikunakuja;16;Yes;104
24.893476100042051;60.202839199569439;103;Tilkantori;16;Yes;105
24.898929700445365;60.203473500401799;104;Korppaanmaentie;16;Yes;106
24.905460900000605;60.202439299833884;105;Tenholantie;18;Yes;107
24.917949289727972;60.204443899466469;106;Radiokatu;14;Yes;108
24.922630033449309;60.202327516801518;107;Hertanmaenkatu;20;Yes;109
24.924865320877927;60.198906713374186;108;Maistraatintori;20;Yes;110
24.926780800393658;60.197572400046283;109;Esterinportti;20;Yes;111
24.933272099727674;60.201438199713209;110;Rautatielaisenkatu;22;Yes;112
24.935203684302621;60.199709414058248;111;Veturitori;1;Yes;113
24.935886835409178;60.197013845512629;112;Ratapihantie;24;Yes;114
24.941577999824858;60.194209500368174;113;Venttiilikuja;17;Yes;115
24.940159300411437;60.191141099881918;114;Linnanmaki;32;Yes;116
24.948102399606114;60.189670600417912;115;Brahen puistikko;12;Yes;117
24.952160100208516;60.189541699689755;116;Fleminginkatu;22;Yes;118
24.956872900264159;60.190709599768297;117;Gebhardinaukio;20;Yes;119
24.963559599795758;60.189635200404211;118;Makelankatu;28;Yes;120
24.967871800443277;60.186463299641616;119;Vilhonvuorenkatu;16;Yes;121
24.962193599754869;60.183718200034946;120;Lintulahdenkatu;17;Yes;122
24.955461800122009;60.17976499975498;121;Nakinsilta;24;Yes;123
24.981792606043996;60.182651820824901;122;Isoisansilta;18;Yes;124
24.978647989812941;60.18479903404824;123;Arielinkatu;20;Yes;125
24.977068399886775;60.18755649033983;124;Kalasataman metroasema;28;Yes;126
24.971192600158417;60.18969940030712;125;Teurastamo;20;Yes;127
24.96422380038814;60.19205759987841;126;Paijanteentie;15;Yes;128
24.957993100301394;60.194234200248218;127;Pernajantie;20;Yes;129
24.948752399903356;60.193486000278767;128;Teollisuuskatu;25;Yes;130
24.947618600318208;60.196262700263446;129;Elimaenkatu;24;Yes;131
24.954533899419971;60.195884798844418;130;Hollolantie;12;Yes;132
24.961438500186659;60.197488600318707;131;Paavalinpuisto;22;Yes;133
24.967670800167355;60.19853140020399;132;Haukilahdenkatu;19;Yes;134
24.944050600354956;60.201061399963692;133;Velodrominrinne;12;Yes;135
24.951363600349907;60.203272099927517;134;Sofianlehdonkatu;12;Yes;136
24.966612799940833;60.202791200053866;135;Arabian kauppakeskus;26;Yes;137
24.977079011886929;60.206491564933856;136;Arabiankatu;14;Yes;138
24.976563179647087;60.21003424088758;137;Kaironkatu;16;Yes;139
24.979728300420788;60.213700700427012;138;Verkatehtaanpuisto;14;Yes;140
24.967638299567909;60.207858199896066;139;Intiankatu;16;Yes;141
24.946513900096477;60.208748999966417;140;Koskelantie;14;Yes;142
24.869306052932075;60.157085600520077;141;Kuikkarinne;12;Yes;143
24.958810799878563;60.213904299743717;142;Kapylantie;14;Yes;144
24.943796399784048;60.213420999579512;143;Pohjolankatu;12;Yes;145
24.954411200416644;60.217204299938544;144;Pohjolanaukio;16;Yes;146
24.947929024704763;60.220805709715762;145;Kapylan asema;18;Yes;147
24.966461899996716;60.218442699670902;146;Juhana Herttuan tie;16;Yes;148
24.94419490017458;60.183164000018621;147;Toinen linja;22;Yes;149
24.933870100324896;60.176679299909836;148;Toolonlahden puisto;28;Yes;150
24.947465819891704;60.167230830938138;149;Etelaesplanadi;34;Yes;161
24.926590497553491;60.169573431768526;150;Leppasuonaukio;1;Yes;162
24.850536771055204;60.181472577597447;151;Lehtisaarentie;12;Yes;163
24.9158626674282;60.150395628355625;152;Lansiterminaali;1;Yes;200
24.912200440098275;60.156931913577012;153;Lansisatamankuja;1;Yes;201
24.958452214997749;60.178065928599779;154;Merihaka;16;Yes;202
24.937826370890377;60.199235425474569;155;Opastinsilta;1;Yes;203
24.962367446800272;60.205674609095979;156;A.I. Virtasen aukio;1;Yes;204
24.922219888637017;60.206626438059743;157;Ilmalan asema;1;Yes;205
24.898667890710612;60.207679959662471;158;Ruskeasuon varikko;5;Yes;206
24.88166025391763;60.211075296088097;159;Vanha Viertotie;1;Yes;207
24.876464793115758;60.215922235422909;160;Valimotie;1;Yes;208
24.87053957204364;60.217854542153475;161;Takomotie;1;Yes;209
24.855667954612443;60.218807357673484;162;Pajamaki;1;Yes;210
24.899551136475793;60.212275240809788;163;Haagan tori;1;Yes;211
24.899543695485193;60.216616537223445;164;Tunnelitie;1;Yes;212
24.895059343913658;60.218088561038314;165;Huopalahden asema;1;Yes;213
24.875870912312791;60.222294278358333;166;Valimon asema;1;Yes;214
24.85863812484962;60.224314287874165;167;Pitajanmaen asema;1;Yes;215
24.853540959048075;60.226769961364653;168;Jannetie;1;Yes;216
24.873227365050923;60.227143233973152;169;Marttila;1;Yes;217
24.883128845020224;60.230151499492138;170;Pohjois-Haagan asema;1;Yes;218
24.88743455526054;60.232852137516204;171;Nayttelijantie;1;Yes;219
24.89201140929913;60.229408823158735;172;Ida Aalbergin tie;1;Yes;220
24.894792650860211;60.225340523146656;173;Thalianaukio;1;Yes;221
24.903286646861318;60.221975535242791;174;Huovitie;1;Yes;222
24.906443562220659;60.227469399193467;175;Hameenlinnanvayla;1;Yes;223
24.926564764352463;60.227942367945957;176;Vesakkotie;1;Yes;224
24.935048839932051;60.231319869016772;177;Maunula;1;Yes;225
24.928595015347753;60.239108942223936;178;Lepolantie;1;Yes;226
24.952561243706498;60.224403784806896;179;Kylavoudintie;1;Yes;227
24.948389140346592;60.230391704813371;180;Kustaankartano;1;Yes;228
24.958761529620972;60.232686915868555;181;Kaskynhaltijantie;1;Yes;229
24.963550343073905;60.228925996937278;182;Makitorpantie;18;Yes;230
24.965395077420965;60.233706856786057;183;Siltavoudintie;16;Yes;231
24.967608606651936;60.228698954093488;184;Oulunkylan asema;1;Yes;232
24.972819374814321;60.224930364844511;185;Kirkkoherrantie;10;Yes;233
24.978138918676223;60.231784065782051;186;Otto Brandtin tie;1;Yes;234
24.984420077924312;60.217214807617324;187;Katariina Saksilaisen katu;16;Yes;235
24.988600115103281;60.224212141077487;188;Hernepellontie;1;Yes;236
24.998533819580132;60.230301926392826;189;Aulangontie;1;Yes;237
25.010313905062731;60.23457857144399;190;Pihlajamaki;1;Yes;238
25.010062060715597;60.227520671341949;191;Viikin tiedepuisto;28;Yes;239
25.027618933267206;60.227495296071083;192;Viikin normaalikoulu;12;Yes;240
25.032857401447984;60.234053010338187;193;Agronominkatu;16;Yes;241
25.043568069810647;60.23033717891775;194;Von Daehnin katu;14;Yes;242
24.992037109924752;60.181861778997984;195;Mustikkamaa;1;Yes;243
25.006019224107945;60.185887497909732;196;Relanderinaukio;1;Yes;244
25.006566530820805;60.188950088775641;197;Kulosaaren metroasema;1;Yes;245
25.015391648206048;60.187998177074292;198;Tupasaarentie;1;Yes;246
25.020860955268915;60.168868558437282;199;Haakoninlahdenkatu;1;Yes;247
25.032968849932502;60.171980271172629;200;Gunillantie;1;Yes;248
25.044900705902933;60.175490322420501;201;Isosaarentie;1;Yes;249
25.047496264441122;60.167730503260145;202;Reiherintie;1;Yes;250
25.051883705068974;60.180092136243161;203;Laajasalon ostoskeskus;1;Yes;251
25.053037859010033;60.183743849599011;204;Humalniementie;1;Yes;252
25.061184170812908;60.191646879499956;205;Tammisalon aukio;1;Yes;253
25.036412289295754;60.187234122956454;206;Agnetankuja;1;Yes;254
25.031385306586685;60.187958103283904;207;Laivalahden puistotie;1;Yes;255
25.026065710564126;60.190210145981496;208;Herttoniemen ranta;1;Yes;256
25.037070035453837;60.191009581227263;209;Margareetankuja;1;Yes;257
25.042580275159594;60.192707896052639;210;Abraham Wetterin tie;1;Yes;258
25.031111942362315;60.193137625401164;211;Petter Wetterin tie;1;Yes;259
25.028872082780424;60.194614624265569;212;Herttoniemen metroasema;1;Yes;260
25.042592465469966;60.199127137207654;213;Asentajanpuisto;1;Yes;261
25.045161156762049;60.205962449707329;214;Siilitien metroasema;1;Yes;262
25.032112127872438;60.198442950981473;215;Herttoniemen kirkko;1;Yes;263
25.033597412190886;60.204561663889706;216;Erankavijantori;1;Yes;264
25.037482215431965;60.209476705285795;217;Siilitie 9;1;Yes;265
25.04379377895981;60.215063372076997;218;Siilitie 13;1;Yes;266
25.056174087264367;60.209234600596403;219;Roihupelto;1;Yes;267
25.053580944305168;60.195539717284191;220;Porolahden koulu;1;Yes;268
25.058549330787059;60.198705499958919;221;Peukaloisentie;1;Yes;269
25.060046595873757;60.202072987078736;222;Tulisuontie;1;Yes;270
25.060092333594355;60.206340232415869;223;Prinsessantie;1;Yes;271
25.076069359913106;60.204324891280748;224;Marjaniementie;1;Yes;272
25.079154814243338;60.207097461578655;225;Kauppakartanonkuja;1;Yes;273
25.086782105709688;60.208997599559609;226;Voikukantie;1;Yes;274
25.07596801531173;60.209600665138623;227;Itakeskuksen metroasema;1;Yes;275
25.082322094289282;60.212494165473402;228;Puotinharju;1;Yes;276
25.086296157042057;60.203609557035463;229;Marjaniemi;1;Yes;277
25.100426060414406;60.209059633895038;230;Puotilantie;1;Yes;278
25.106198742977654;60.212509908105801;231;Puotinkylan kartano;1;Yes;279
25.095559513161049;60.212700571574146;232;Puotilan ostoskeskus;1;Yes;280
25.091124528074545;60.214820713405231;233;Puotilan metroasema;1;Yes;281
25.102324850311618;60.218601478575408;234;Karhulantie;1;Yes;282
25.077470243756807;60.219850966049307;235;Alakiventie;1;Yes;283
25.07539579198226;60.224086468016139;236;Myllypuron metroasema;1;Yes;284
25.06542183834722;60.223565196676532;237;Orpaanporras;1;Yes;285
25.059103876143013;60.218251969652727;238;Mamsellimyllynkatu;1;Yes;286